[
   {
      "actor" : null,
      "conflict" : false,
      "createdOn" : 1441077831574,
      "id" : "__UUID__",
      "modifiedOn" : 1441077843394,
      "name" : "BIND",
      "userId" : "183d8c65-7bda-4091-ab37-cabd00be90d0",
      "viewlets" : [
         {
            "chartType" : "column",
            "id" : "__UUID__",
            "location" : "00",
            "name" : "corruptions",
            "savedSearch" : {
               "absoluteTime" : false,
               "actor" : null,
               "chartType" : "bar",
               "conflict" : false,
               "contentPackId" : null,
               "creationTime" : 1441077619547,
               "description" : "",
               "endTime" : 1441077607852,
               "executionCount" : 0,
               "id" : "__UUID__",
               "modificationTime" : 0,
               "modifiedBy" : "",
               "nextFireTime" : 0,
               "notifications" : null,
               "outputType" : "LIST",
               "queryName" : "BIND corruption",
               "queryString" : "COLLECTOR_NAME=\"BIND_Rand_TEST\" && errnum=994",
               "relativeMinutes" : 60,
               "savedDashboards" : null,
               "scheduled" : false,
               "share" : true,
               "startTime" : 1441074007852,
               "status" : "",
               "summarizationField" : "HOST",
               "userId" : "183d8c65-7bda-4091-ab37-cabd00be90d0",
               "viewType" : "Results View"
            },
            "summarizationField" : "errnum",
            "userId" : "183d8c65-7bda-4091-ab37-cabd00be90d0",
            "viewId" : "__UUID__",
            "viewName" : "corruptions"
         }
      ]
   }
]

